
-------------------------------------------------------------------------
-------------------------------------------------------------------------
sudo nano /etc/network/interfaces
sudo ifdown wlan0 && sudo ifup wlan0
-------------------------------------------------------------------------
2020 11 08

ssh malik@172.105.127.230
scp -r farmdiary malik@172.105.127.230:~/Flask_Blog
sudo supervisorctl reload

delete  from weight;
-------------------------------------------------------------------------
# move complete farmdiary folder to linode Server
(venv) malik@ubuntu11:~/repos/py/coreySchafer_flask/Flask_Blog$ scp -r farmdiary malik@172.105.127.230:~/Flask_Blog

sudo supervisorctl reload # only this command sufficient

scp -r farmdiary/templates/layout.html  malik@172.105.127.230:~/Flask_Blog/farmdiary/templates/

-------------------------------------------------------------------------
ssh malik@172.105.127.230
$ sudo -u postgres psql farmdiary
-------------------------------------------------------------------------
-------------------------------------------------------------------------
running local server
(venv) malik@ubuntu11:~/repos/py/coreySchafer_flask/Flask_Blog$ export FLASK_APP=run.py
(venv) malik@ubuntu11:~/repos/py/coreySchafer_flask/Flask_Blog$ flask run --host=0.0.0.0
-------------------------------------------------------------------------
(venv) malik@ubuntu11:~/repos/py/coreySchafer_flask/Flask_Blog$ python run.py
-------------------------------------------------------------------------
-------------------------------------------------------------------------
# CMDS
# setting up linode server
ssh malik@172.105.127.230       # login farmdiary
$ echo $VIRTUAL_ENV
source venv/bin/activate
export FLASK_APP=run.py    # source venv/bin/activate
flask run --host=0.0.0.0
#- open browser and
http://172.105.127.230:5000/

sudo supervisorctl reload # only this command sufficient
-------------------------------------------------------------------------
# setting up local host
# export FLASK_APP=run.py
# $ flask users bootstrap   # drop and create all tables
# $ flask users initdb      # drop and create all tables, as well as init all user data
# $ flask animals addAnimalData # breed, vaccine types, animals

(venv) malik@ubuntu11:~/repos/py/coreySchafer_flask/Flask_Blog$ flask users bootstrap
(venv) malik@ubuntu11:~/repos/py/coreySchafer_flask/Flask_Blog$ flask users initdb
(venv) malik@ubuntu11:~/repos/py/coreySchafer_flask/Flask_Blog$ flask animals addAnimalData


# step 1 http://127.0.0.1:5000/post/load_json
# step 2 press button on post page, data gets populated.
-------------------------------------------------------------------------
# STEP1 Delete Database
(venv) malik@ubuntu11:~/repos/py/coreySchafer_flask/Flask_Blog$ sudo -u postgres psql
postgres=# drop database farmdiary;
DROP DATABASE
postgres=# create database farmdiary;
CREATE DATABASE

------------------------------------------------
# STEP2 set environment for running commands

(venv) malik@ubuntu11:~/repos/py/coreySchafer_flask/Flask_Blog$ export FLASK_APP=run.py
(venv) malik@ubuntu11:~/repos/py/coreySchafer_flask/Flask_Blog$ echo $FLASK_APP
run.py
------------------------------------------------
# STEP3 delete migrations directory, if it exists
------------------------------------------------
# STEP4 initialize migrations
(venv) malik@ubuntu11:~/repos/py/coreySchafer_flask/Flask_Blog$ flask db init
------------------------------------------------
# STEP4 set naming in config file
file_template = %%(year)d-%%(month).2d-%%(day).2d-%%(hour).2d-%%(minute).2d-%%(second).2d _%%(rev)s_%%(slug)s
# STEP5 do migration
(venv) malik@ubuntu11:~/repos/py/coreySchafer_flask/Flask_Blog$ flask db migrate -m "2020 10 30 -1"
------------------------------------------------
# STEP5 update db
------------------------------------------------
STEP6 check and test from sql prompt
postgres=# \c farmdiary

farmdiary=# select * from public.animal;
 id | tag_id | owner_id | sex | source | description | user_id | purchased_from | purchased_price | image_file
----+--------+----------+-----+--------+-------------+---------+----------------+-----------------+------------
(0 rows)
------------------------------------------------
STEP7 - Add data
(venv) malik@ubuntu11:~/repos/py/coreySchafer_flask/Flask_Blog$ flask users bootstrap
(venv) malik@ubuntu11:~/repos/py/coreySchafer_flask/Flask_Blog$ flask users initdb
(venv) malik@ubuntu11:~/repos/py/coreySchafer_flask/Flask_Blog$ flask animals addAnimalData
------------------------------------------------
------------------------------------------------

-------------------------------------------------------------------------
-------------------------------------------------------------------------
# migrations
# local host

(venv) malik@ubuntu11:~/repos/py/coreySchafer_flask/Flask_Blog$ flask db init
(venv) malik@ubuntu11:~/repos/py/coreySchafer_flask/Flask_Blog$ flask db migrate -m "2020 10 30"
$ flask db upgrade

(venv) malik@ubuntu11:~/repos/py/coreySchafer_flask/Flask_Blog$ sudo -u postgres psql farmdiary
farmdiary=# select * from alembic_version;

flaskdb=# delete from alembic_version where version_num='4d3a5a7f90e0';
-------------------------------------------------------------------------
-------------------------------------------------------------------------

postgres --version

"SQLALCHEMY_DATABASE_URI": "sqlite:///site.db",
sudo nano /etc/config.json
"SQLALCHEMY_DATABASE_URI": "postgresql://postgres:postgres@localhost/farmdiary",
-------------------------------------------------------------------------
malik@farmdiary:~$ sudo -i -u postgres
[sudo] password for malik:
postgres@farmdiary:~$ createuser malik -P --interactive
Enter password for new role:
Enter it again:
Shall the new role be a superuser? (y/n) n
Shall the new role be allowed to create databases? (y/n) y
Shall the new role be allowed to create more new roles? (y/n) y
postgres@farmdiary:~$

# password and user same as on fujitsu laptop malik/

postgres@farmdiary:~$ createdb farmdiary
postgres@farmdiary:~$ logout
malik@farmdiary:~$ sudo -i -u postgres psql farmdiary

malik@farmdiary:~$ sudo -i -u postgres
postgres@farmdiary:~$
logout  # logout database
malik@farmdiary:~$ psql farmdiary
\q  # quit termainal
\l
\d
\dt
\dd
\q  quit psql terminal

https://www.postgresql.org/docs/9.6/app-psql.html
\c or \connect [ -reuse-previous=on|off ] [ dbname [ username ] [ host ] [ port ] | conninfo ]

malik@farmdiary:~$ which python3
/usr/bin/python3

malik@farmdiary:~/Flask_Blog$ source venv/bin/activate
(venv) malik@farmdiary:~/Flask_Blog$ echo $VIRTUAL_ENV
/home/malik/Flask_Blog/venv

-------------------------------------------------------------------------
sudo apt install python3-dev libpq-dev
$ pip install psycopg2
 Successfully installed psycopg2-2.8.6

$ pip install flask_migrate
Successfully installed Mako-1.1.3 alembic-1.4.3 flask-migrate-2.5.3 python-dateutil-2.8.1 python-editor-1.0.4
$ pip install Flask-Script
Successfully installed Flask-Script-2.0.6

$ python pg1.py db init
$ python pg1.py db migrate
$ python pg1.py db upgrade
$ flask db --help

$ flask db init
$ flask db migrate -m "Initial migration."

file_template = %%(year)d-%%(month).2d-%%(day).2d-%%(hour).2d-%%(minute).2d-%%(second).2d _%%(rev)s_%%(slug)s
-------------------------------------------------------------------------



-------------------------------------------------------------------------
-------------------------------------------------------------------------
-------------------------------------------------------------------------
-------------------------------------------------------------------------
-------------------------------------------------------------------------
-------------------------------------------------------------------------
-------------------------------------------------------------------------
-------------------------------------------------------------------------
-------------------------------------------------------------------------
-------------------------------------------------------------------------
-------------------------------------------------------------------------
-------------------------------------------------------------------------
-------------------------------------------------------------------------
-------------------------------------------------------------------------
-------------------------------------------------------------------------
-------------------------------------------------------------------------
-------------------------------------------------------------------------
-------------------------------------------------------------------------
-------------------------------------------------------------------------
-------------------------------------------------------------------------
-------------------------------------------------------------------------
-------------------------------------------------------------------------
-------------------------------------------------------------------------
-------------------------------------------------------------------------
-------------------------------------------------------------------------
-------------------------------------------------------------------------
-------------------------------------------------------------------------
-------------------------------------------------------------------------
-------------------------------------------------------------------------
-------------------------------------------------------------------------
-------------------------------------------------------------------------
-------------------------------------------------------------------------
-------------------------------------------------------------------------
-------------------------------------------------------------------------
-------------------------------------------------------------------------
-------------------------------------------------------------------------
-------------------------------------------------------------------------
-------------------------------------------------------------------------
-------------------------------------------------------------------------
-------------------------------------------------------------------------
-------------------------------------------------------------------------
-------------------------------------------------------------------------
-------------------------------------------------------------------------
-------------------------------------------------------------------------
-------------------------------------------------------------------------
-------------------------------------------------------------------------
-------------------------------------------------------------------------
-------------------------------------------------------------------------
-------------------------------------------------------------------------
-------------------------------------------------------------------------
-------------------------------------------------------------------------
-------------------------------------------------------------------------
-------------------------------------------------------------------------
-------------------------------------------------------------------------
-------------------------------------------------------------------------
-------------------------------------------------------------------------
-------------------------------------------------------------------------
-------------------------------------------------------------------------
-------------------------------------------------------------------------
-------------------------------------------------------------------------
-------------------------------------------------------------------------
-------------------------------------------------------------------------
-------------------------------------------------------------------------
-------------------------------------------------------------------------
-------------------------------------------------------------------------
-------------------------------------------------------------------------
-------------------------------------------------------------------------
-------------------------------------------------------------------------
-------------------------------------------------------------------------
-------------------------------------------------------------------------
-------------------------------------------------------------------------
-------------------------------------------------------------------------
-------------------------------------------------------------------------
-------------------------------------------------------------------------
-------------------------------------------------------------------------
-------------------------------------------------------------------------
-------------------------------------------------------------------------
-------------------------------------------------------------------------
-------------------------------------------------------------------------
-------------------------------------------------------------------------
